digraph "XA2SourceVoice2D::Polling"
{
  edge [fontname="Helvetica",fontsize="10",labelfontname="Helvetica",labelfontsize="10"];
  node [fontname="Helvetica",fontsize="10",shape=record];
  rankdir="LR";
  Node36 [label="XA2SourceVoice2D::Polling",height=0.2,width=0.4,color="black", fillcolor="grey75", style="filled", fontcolor="black"];
  Node36 -> Node37 [color="midnightblue",fontsize="10",style="solid"];
  Node37 [label="XA2Manager::Locker",height=0.2,width=0.4,color="black", fillcolor="white", style="filled",URL="$class_x_a2_manager.html#a8b5655a4480f7d5f722bcc867e4ae17a"];
  Node36 -> Node38 [color="midnightblue",fontsize="10",style="solid"];
  Node38 [label="XA2LoadAudio::GetStreamingFlag",height=0.2,width=0.4,color="black", fillcolor="white", style="filled",URL="$class_x_a2_load_audio.html#a82dd13af40d66fc60b51cd4b7f87bb47"];
  Node36 -> Node39 [color="midnightblue",fontsize="10",style="solid"];
  Node39 [label="XA2LoadAudio::GetAudioFormat",height=0.2,width=0.4,color="black", fillcolor="white", style="filled",URL="$class_x_a2_load_audio.html#af6af1f10d12e0d4d06b0f07780620f9a"];
  Node36 -> Node40 [color="midnightblue",fontsize="10",style="solid"];
  Node40 [label="XA2LoadWaveStreaming\l::Polling",height=0.2,width=0.4,color="black", fillcolor="white", style="filled",URL="$class_x_a2_load_wave_streaming.html#a379b3b68d932167e14f8510e759fc3ac"];
  Node40 -> Node37 [color="midnightblue",fontsize="10",style="solid"];
  Node36 -> Node41 [color="midnightblue",fontsize="10",style="solid"];
  Node41 [label="XA2LoadOggStreaming\l::Polling",height=0.2,width=0.4,color="black", fillcolor="white", style="filled",URL="$class_x_a2_load_ogg_streaming.html#a92a9140eeef10e944a806fd789935445"];
  Node41 -> Node37 [color="midnightblue",fontsize="10",style="solid"];
}
