digraph "XA2LoadOggStreaming::Play"
{
  edge [fontname="Helvetica",fontsize="10",labelfontname="Helvetica",labelfontsize="10"];
  node [fontname="Helvetica",fontsize="10",shape=record];
  rankdir="LR";
  Node9 [label="XA2LoadOggStreaming\l::Play",height=0.2,width=0.4,color="black", fillcolor="grey75", style="filled", fontcolor="black"];
  Node9 -> Node10 [color="midnightblue",fontsize="10",style="solid"];
  Node10 [label="XA2SourceVoiceData\l::GetSourceVoice",height=0.2,width=0.4,color="black", fillcolor="white", style="filled",URL="$class_x_a2_source_voice_data.html#ac60c0bf6f81539b9c417bf1e634d371d"];
}
