digraph "XA2Core::GetChannelMask"
{
  edge [fontname="Helvetica",fontsize="10",labelfontname="Helvetica",labelfontsize="10"];
  node [fontname="Helvetica",fontsize="10",shape=record];
  rankdir="LR";
  Node5 [label="XA2Core::GetChannelMask",height=0.2,width=0.4,color="black", fillcolor="grey75", style="filled", fontcolor="black"];
  Node5 -> Node6 [dir="back",color="midnightblue",fontsize="10",style="solid"];
  Node6 [label="XA2Manager::XA2Manager",height=0.2,width=0.4,color="black", fillcolor="white", style="filled",URL="$class_x_a2_manager.html#adc9c5f88ecb95c8cf102f28d91c2f7ea"];
}
