digraph "XA2Manager::GetSoundResourceManager"
{
  edge [fontname="Helvetica",fontsize="10",labelfontname="Helvetica",labelfontsize="10"];
  node [fontname="Helvetica",fontsize="10",shape=record];
  rankdir="LR";
  Node32 [label="XA2Manager::GetSoundResource\lManager",height=0.2,width=0.4,color="black", fillcolor="grey75", style="filled", fontcolor="black"];
  Node32 -> Node33 [dir="back",color="midnightblue",fontsize="10",style="solid"];
  Node33 [label="XA2LoadAudio::Load",height=0.2,width=0.4,color="black", fillcolor="white", style="filled",URL="$class_x_a2_load_audio.html#a979a555dc5b3bbc8e325c126d4abb8f1"];
  Node32 -> Node34 [dir="back",color="midnightblue",fontsize="10",style="solid"];
  Node34 [label="XA2SourceVoice2D::Create",height=0.2,width=0.4,color="black", fillcolor="white", style="filled",URL="$class_x_a2_source_voice2_d.html#ad3d19f49ac9fdce15fcd8c0d9e334dd3"];
  Node34 -> Node35 [dir="back",color="midnightblue",fontsize="10",style="solid"];
  Node35 [label="XA2SourceVoice2D::CreatePlay",height=0.2,width=0.4,color="black", fillcolor="white", style="filled",URL="$class_x_a2_source_voice2_d.html#a1f588f03d2a71dd3979ee5b921949be3"];
  Node32 -> Node35 [dir="back",color="midnightblue",fontsize="10",style="solid"];
  Node32 -> Node36 [dir="back",color="midnightblue",fontsize="10",style="solid"];
  Node36 [label="XA2SourceVoice3D::Create",height=0.2,width=0.4,color="black", fillcolor="white", style="filled",URL="$class_x_a2_source_voice3_d.html#a2d63c470368922c8d5956e10e30ae299"];
  Node36 -> Node37 [dir="back",color="midnightblue",fontsize="10",style="solid"];
  Node37 [label="XA2SourceVoice3D::CreatePlay",height=0.2,width=0.4,color="black", fillcolor="white", style="filled",URL="$class_x_a2_source_voice3_d.html#a9b6c3a3553c53f052cf591d9cc339dd6"];
  Node32 -> Node37 [dir="back",color="midnightblue",fontsize="10",style="solid"];
}
