digraph "XA2SourceVoiceManager::Uninit"
{
  edge [fontname="Helvetica",fontsize="10",labelfontname="Helvetica",labelfontsize="10"];
  node [fontname="Helvetica",fontsize="10",shape=record];
  rankdir="LR";
  Node17 [label="XA2SourceVoiceManager\l::Uninit",height=0.2,width=0.4,color="black", fillcolor="grey75", style="filled", fontcolor="black"];
  Node17 -> Node18 [dir="back",color="midnightblue",fontsize="10",style="solid"];
  Node18 [label="XA2Manager::~XA2Manager",height=0.2,width=0.4,color="black", fillcolor="white", style="filled",URL="$class_x_a2_manager.html#a552049ab67652566566eeb9b1af1565a"];
}
