digraph "XA2Manager::GetMasteringVoice"
{
  edge [fontname="Helvetica",fontsize="10",labelfontname="Helvetica",labelfontsize="10"];
  node [fontname="Helvetica",fontsize="10",shape=record];
  rankdir="LR";
  Node27 [label="XA2Manager::GetMastering\lVoice",height=0.2,width=0.4,color="black", fillcolor="grey75", style="filled", fontcolor="black"];
  Node27 -> Node28 [dir="back",color="midnightblue",fontsize="10",style="solid"];
  Node28 [label="XA2SourceVoice3D::Create",height=0.2,width=0.4,color="black", fillcolor="white", style="filled",URL="$class_x_a2_source_voice3_d.html#a2d63c470368922c8d5956e10e30ae299"];
  Node28 -> Node29 [dir="back",color="midnightblue",fontsize="10",style="solid"];
  Node29 [label="XA2SourceVoice3D::CreatePlay",height=0.2,width=0.4,color="black", fillcolor="white", style="filled",URL="$class_x_a2_source_voice3_d.html#a9b6c3a3553c53f052cf591d9cc339dd6"];
  Node27 -> Node30 [dir="back",color="midnightblue",fontsize="10",style="solid"];
  Node30 [label="XA2SourceVoice3D::Update",height=0.2,width=0.4,color="black", fillcolor="white", style="filled",URL="$class_x_a2_source_voice3_d.html#aecb0e7bf791593bbdd90f7fd3a6d66d7"];
}
