digraph "XA2SourceVoiceData::SetFilePass"
{
  edge [fontname="Helvetica",fontsize="10",labelfontname="Helvetica",labelfontsize="10"];
  node [fontname="Helvetica",fontsize="10",shape=record];
  rankdir="LR";
  Node22 [label="XA2SourceVoiceData\l::SetFilePass",height=0.2,width=0.4,color="black", fillcolor="grey75", style="filled", fontcolor="black"];
  Node22 -> Node23 [dir="back",color="midnightblue",fontsize="10",style="solid"];
  Node23 [label="XA2SourceVoice2D::Create",height=0.2,width=0.4,color="black", fillcolor="white", style="filled",URL="$class_x_a2_source_voice2_d.html#ad3d19f49ac9fdce15fcd8c0d9e334dd3"];
  Node23 -> Node24 [dir="back",color="midnightblue",fontsize="10",style="solid"];
  Node24 [label="XA2SourceVoice2D::CreatePlay",height=0.2,width=0.4,color="black", fillcolor="white", style="filled",URL="$class_x_a2_source_voice2_d.html#a1f588f03d2a71dd3979ee5b921949be3"];
  Node22 -> Node25 [dir="back",color="midnightblue",fontsize="10",style="solid"];
  Node25 [label="XA2SourceVoice3D::Create",height=0.2,width=0.4,color="black", fillcolor="white", style="filled",URL="$class_x_a2_source_voice3_d.html#a2d63c470368922c8d5956e10e30ae299"];
  Node25 -> Node26 [dir="back",color="midnightblue",fontsize="10",style="solid"];
  Node26 [label="XA2SourceVoice3D::CreatePlay",height=0.2,width=0.4,color="black", fillcolor="white", style="filled",URL="$class_x_a2_source_voice3_d.html#a9b6c3a3553c53f052cf591d9cc339dd6"];
}
