digraph "XA2SourceVoice3D::Polling"
{
  edge [fontname="Helvetica",fontsize="10",labelfontname="Helvetica",labelfontsize="10"];
  node [fontname="Helvetica",fontsize="10",shape=record];
  rankdir="LR";
  Node47 [label="XA2SourceVoice3D::Polling",height=0.2,width=0.4,color="black", fillcolor="grey75", style="filled", fontcolor="black"];
  Node47 -> Node48 [color="midnightblue",fontsize="10",style="solid"];
  Node48 [label="XA2Manager::Locker",height=0.2,width=0.4,color="black", fillcolor="white", style="filled",URL="$class_x_a2_manager.html#a8b5655a4480f7d5f722bcc867e4ae17a"];
  Node47 -> Node49 [color="midnightblue",fontsize="10",style="solid"];
  Node49 [label="XA2LoadAudio::GetStreamingFlag",height=0.2,width=0.4,color="black", fillcolor="white", style="filled",URL="$class_x_a2_load_audio.html#a82dd13af40d66fc60b51cd4b7f87bb47"];
  Node47 -> Node50 [color="midnightblue",fontsize="10",style="solid"];
  Node50 [label="XA2LoadWaveStreaming\l::Polling",height=0.2,width=0.4,color="black", fillcolor="white", style="filled",URL="$class_x_a2_load_wave_streaming.html#a379b3b68d932167e14f8510e759fc3ac"];
  Node50 -> Node48 [color="midnightblue",fontsize="10",style="solid"];
}
