digraph "XA2SourceVoiceData"
{
  edge [fontname="Helvetica",fontsize="10",labelfontname="Helvetica",labelfontsize="10"];
  node [fontname="Helvetica",fontsize="10",shape=record];
  Node1 [label="XA2SourceVoiceData",height=0.2,width=0.4,color="black", fillcolor="grey75", style="filled", fontcolor="black"];
  Node2 -> Node1 [dir="back",color="darkorchid3",fontsize="10",style="dashed",label=" m_pWaveData" ];
  Node2 [label="XA2LoadAudio",height=0.2,width=0.4,color="black", fillcolor="white", style="filled",URL="$class_x_a2_load_audio.html"];
}
