digraph "XA2SourceVoice3D::~XA2SourceVoice3D"
{
  edge [fontname="Helvetica",fontsize="10",labelfontname="Helvetica",labelfontsize="10"];
  node [fontname="Helvetica",fontsize="10",shape=record];
  rankdir="LR";
  Node2 [label="XA2SourceVoice3D::\l~XA2SourceVoice3D",height=0.2,width=0.4,color="black", fillcolor="grey75", style="filled", fontcolor="black"];
  Node2 -> Node3 [color="midnightblue",fontsize="10",style="solid"];
  Node3 [label="XA2SourceVoice3D::Uninit",height=0.2,width=0.4,color="black", fillcolor="white", style="filled",URL="$class_x_a2_source_voice3_d.html#a68ab9d7b56af4f2006c49b066373c054"];
}
