digraph "XA2SourceVoice2D"
{
  edge [fontname="Helvetica",fontsize="10",labelfontname="Helvetica",labelfontsize="10"];
  node [fontname="Helvetica",fontsize="10",shape=record];
  Node0 [label="XA2SourceVoice2D",height=0.2,width=0.4,color="black", fillcolor="grey75", style="filled", fontcolor="black"];
  Node1 -> Node0 [dir="back",color="midnightblue",fontsize="10",style="solid"];
  Node1 [label="XA2SourceVoiceInterface",height=0.2,width=0.4,color="black", fillcolor="white", style="filled",URL="$class_x_a2_source_voice_interface.html"];
}
