digraph "XA2LoadAudio::GetStreamingFlag"
{
  edge [fontname="Helvetica",fontsize="10",labelfontname="Helvetica",labelfontsize="10"];
  node [fontname="Helvetica",fontsize="10",shape=record];
  rankdir="LR";
  Node32 [label="XA2LoadAudio::GetStreamingFlag",height=0.2,width=0.4,color="black", fillcolor="grey75", style="filled", fontcolor="black"];
  Node32 -> Node33 [dir="back",color="midnightblue",fontsize="10",style="solid"];
  Node33 [label="XA2SourceVoice2D::CreatePlay",height=0.2,width=0.4,color="black", fillcolor="white", style="filled",URL="$class_x_a2_source_voice2_d.html#a1f588f03d2a71dd3979ee5b921949be3"];
  Node32 -> Node34 [dir="back",color="midnightblue",fontsize="10",style="solid"];
  Node34 [label="XA2SourceVoice2D::Polling",height=0.2,width=0.4,color="black", fillcolor="white", style="filled",URL="$class_x_a2_source_voice2_d.html#ac2a595b52b376696d5e53a6d22cb9ff6"];
  Node32 -> Node35 [dir="back",color="midnightblue",fontsize="10",style="solid"];
  Node35 [label="XA2SourceVoice3D::CreatePlay",height=0.2,width=0.4,color="black", fillcolor="white", style="filled",URL="$class_x_a2_source_voice3_d.html#a9b6c3a3553c53f052cf591d9cc339dd6"];
  Node32 -> Node36 [dir="back",color="midnightblue",fontsize="10",style="solid"];
  Node36 [label="XA2SourceVoice3D::Polling",height=0.2,width=0.4,color="black", fillcolor="white", style="filled",URL="$class_x_a2_source_voice3_d.html#a5afa83aae40a3bf71111bbf2c14a95d8"];
}
