digraph "XA2SourceVoiceInterface::CreatePlay"
{
  edge [fontname="Helvetica",fontsize="10",labelfontname="Helvetica",labelfontsize="10"];
  node [fontname="Helvetica",fontsize="10",shape=record];
  rankdir="LR";
  Node14 [label="XA2SourceVoiceInterface\l::CreatePlay",height=0.2,width=0.4,color="black", fillcolor="grey75", style="filled", fontcolor="black"];
  Node14 -> Node15 [dir="back",color="midnightblue",fontsize="10",style="solid"];
  Node15 [label="XA2LoadOggOnAll::Play",height=0.2,width=0.4,color="black", fillcolor="white", style="filled",URL="$class_x_a2_load_ogg_on_all.html#ab6770d29392a6dea7bfcc990f62cb64e"];
  Node14 -> Node16 [dir="back",color="midnightblue",fontsize="10",style="solid"];
  Node16 [label="XA2LoadWaveOnAll::Play",height=0.2,width=0.4,color="black", fillcolor="white", style="filled",URL="$class_x_a2_load_wave_on_all.html#a592001077251c6b9d66184ce766aaad7"];
}
