digraph "wMath.cpp"
{
  edge [fontname="Helvetica",fontsize="10",labelfontname="Helvetica",labelfontsize="10"];
  node [fontname="Helvetica",fontsize="10",shape=record];
  Node0 [label="wMath.cpp",height=0.2,width=0.4,color="black", fillcolor="grey75", style="filled", fontcolor="black"];
  Node0 -> Node1 [color="midnightblue",fontsize="10",style="solid"];
  Node1 [label="wMath.h",height=0.2,width=0.4,color="black", fillcolor="white", style="filled",URL="$w_math_8h.html"];
  Node1 -> Node2 [color="midnightblue",fontsize="10",style="solid"];
  Node2 [label="DirectXMath.h",height=0.2,width=0.4,color="grey75", fillcolor="white", style="filled"];
}
