digraph "xa2Listener.h"
{
  edge [fontname="Helvetica",fontsize="10",labelfontname="Helvetica",labelfontsize="10"];
  node [fontname="Helvetica",fontsize="10",shape=record];
  Node16 [label="xa2Listener.h",height=0.2,width=0.4,color="black", fillcolor="grey75", style="filled", fontcolor="black"];
  Node16 -> Node17 [dir="back",color="midnightblue",fontsize="10",style="solid"];
  Node17 [label="xa2Listener.cpp",height=0.2,width=0.4,color="black", fillcolor="white", style="filled",URL="$xa2_listener_8cpp.html"];
  Node16 -> Node18 [dir="back",color="midnightblue",fontsize="10",style="solid"];
  Node18 [label="xa2ListenerManager.cpp",height=0.2,width=0.4,color="black", fillcolor="white", style="filled",URL="$xa2_listener_manager_8cpp.html"];
  Node16 -> Node19 [dir="back",color="midnightblue",fontsize="10",style="solid"];
  Node19 [label="xa2SourceVoice3D.cpp",height=0.2,width=0.4,color="black", fillcolor="white", style="filled",URL="$xa2_source_voice3_d_8cpp.html"];
}
