digraph "xa2LoadWave.h"
{
  edge [fontname="Helvetica",fontsize="10",labelfontname="Helvetica",labelfontsize="10"];
  node [fontname="Helvetica",fontsize="10",shape=record];
  Node4 [label="xa2LoadWave.h",height=0.2,width=0.4,color="black", fillcolor="grey75", style="filled", fontcolor="black"];
  Node4 -> Node5 [dir="back",color="midnightblue",fontsize="10",style="solid"];
  Node5 [label="xa2SourceVoiceInterface.h",height=0.2,width=0.4,color="black", fillcolor="white", style="filled",URL="$xa2_source_voice_interface_8h.html"];
  Node5 -> Node6 [dir="back",color="midnightblue",fontsize="10",style="solid"];
  Node6 [label="xa2Listener.h",height=0.2,width=0.4,color="black", fillcolor="white", style="filled",URL="$xa2_listener_8h.html"];
  Node6 -> Node7 [dir="back",color="midnightblue",fontsize="10",style="solid"];
  Node7 [label="xa2Listener.cpp",height=0.2,width=0.4,color="black", fillcolor="white", style="filled",URL="$xa2_listener_8cpp.html"];
  Node6 -> Node8 [dir="back",color="midnightblue",fontsize="10",style="solid"];
  Node8 [label="xa2ListenerManager.cpp",height=0.2,width=0.4,color="black", fillcolor="white", style="filled",URL="$xa2_listener_manager_8cpp.html"];
  Node6 -> Node9 [dir="back",color="midnightblue",fontsize="10",style="solid"];
  Node9 [label="xa2SourceVoice3D.cpp",height=0.2,width=0.4,color="black", fillcolor="white", style="filled",URL="$xa2_source_voice3_d_8cpp.html"];
  Node5 -> Node10 [dir="back",color="midnightblue",fontsize="10",style="solid"];
  Node10 [label="xa2LoadOgg.cpp",height=0.2,width=0.4,color="black", fillcolor="white", style="filled",URL="$xa2_load_ogg_8cpp.html"];
  Node5 -> Node11 [dir="back",color="midnightblue",fontsize="10",style="solid"];
  Node11 [label="xa2LoadWave.cpp",height=0.2,width=0.4,color="black", fillcolor="white", style="filled",URL="$xa2_load_wave_8cpp.html"];
  Node5 -> Node12 [dir="back",color="midnightblue",fontsize="10",style="solid"];
  Node12 [label="xa2SourceVoice2D.h",height=0.2,width=0.4,color="black", fillcolor="white", style="filled",URL="$xa2_source_voice2_d_8h.html"];
  Node12 -> Node13 [dir="back",color="midnightblue",fontsize="10",style="solid"];
  Node13 [label="xa2SourceVoice2D.cpp",height=0.2,width=0.4,color="black", fillcolor="white", style="filled",URL="$xa2_source_voice2_d_8cpp.html"];
  Node12 -> Node14 [dir="back",color="midnightblue",fontsize="10",style="solid"];
  Node14 [label="xa2SourceVoiceManager.cpp",height=0.2,width=0.4,color="black", fillcolor="white", style="filled",URL="$xa2_source_voice_manager_8cpp.html"];
  Node5 -> Node15 [dir="back",color="midnightblue",fontsize="10",style="solid"];
  Node15 [label="xa2SourceVoice3D.h",height=0.2,width=0.4,color="black", fillcolor="white", style="filled",URL="$xa2_source_voice3_d_8h.html"];
  Node15 -> Node9 [dir="back",color="midnightblue",fontsize="10",style="solid"];
  Node5 -> Node16 [dir="back",color="midnightblue",fontsize="10",style="solid"];
  Node16 [label="xa2SourceVoiceInterface.cpp",height=0.2,width=0.4,color="black", fillcolor="white", style="filled",URL="$xa2_source_voice_interface_8cpp.html"];
  Node4 -> Node17 [dir="back",color="midnightblue",fontsize="10",style="solid"];
  Node17 [label="xa2LoadOgg.h",height=0.2,width=0.4,color="black", fillcolor="white", style="filled",URL="$xa2_load_ogg_8h.html"];
  Node17 -> Node10 [dir="back",color="midnightblue",fontsize="10",style="solid"];
  Node17 -> Node18 [dir="back",color="midnightblue",fontsize="10",style="solid"];
  Node18 [label="xa2SoundResourceManager.h",height=0.2,width=0.4,color="black", fillcolor="white", style="filled",URL="$xa2_sound_resource_manager_8h.html"];
  Node18 -> Node10 [dir="back",color="midnightblue",fontsize="10",style="solid"];
  Node18 -> Node11 [dir="back",color="midnightblue",fontsize="10",style="solid"];
  Node18 -> Node19 [dir="back",color="midnightblue",fontsize="10",style="solid"];
  Node19 [label="xa2Manager.cpp",height=0.2,width=0.4,color="black", fillcolor="white", style="filled",URL="$xa2_manager_8cpp.html"];
  Node18 -> Node20 [dir="back",color="midnightblue",fontsize="10",style="solid"];
  Node20 [label="xa2SoundResourceManager.cpp",height=0.2,width=0.4,color="black", fillcolor="white", style="filled",URL="$xa2_sound_resource_manager_8cpp.html"];
  Node18 -> Node13 [dir="back",color="midnightblue",fontsize="10",style="solid"];
  Node18 -> Node9 [dir="back",color="midnightblue",fontsize="10",style="solid"];
  Node18 -> Node16 [dir="back",color="midnightblue",fontsize="10",style="solid"];
  Node4 -> Node18 [dir="back",color="midnightblue",fontsize="10",style="solid"];
  Node4 -> Node11 [dir="back",color="midnightblue",fontsize="10",style="solid"];
}
