digraph "xa2LoadOgg.h"
{
  edge [fontname="Helvetica",fontsize="10",labelfontname="Helvetica",labelfontsize="10"];
  node [fontname="Helvetica",fontsize="10",shape=record];
  Node13 [label="xa2LoadOgg.h",height=0.2,width=0.4,color="black", fillcolor="grey75", style="filled", fontcolor="black"];
  Node13 -> Node14 [dir="back",color="midnightblue",fontsize="10",style="solid"];
  Node14 [label="xa2LoadOgg.cpp",height=0.2,width=0.4,color="black", fillcolor="white", style="filled",URL="$xa2_load_ogg_8cpp.html"];
  Node13 -> Node15 [dir="back",color="midnightblue",fontsize="10",style="solid"];
  Node15 [label="xa2SoundResourceManager.h",height=0.2,width=0.4,color="black", fillcolor="white", style="filled",URL="$xa2_sound_resource_manager_8h.html"];
  Node15 -> Node14 [dir="back",color="midnightblue",fontsize="10",style="solid"];
  Node15 -> Node16 [dir="back",color="midnightblue",fontsize="10",style="solid"];
  Node16 [label="xa2LoadWave.cpp",height=0.2,width=0.4,color="black", fillcolor="white", style="filled",URL="$xa2_load_wave_8cpp.html"];
  Node15 -> Node17 [dir="back",color="midnightblue",fontsize="10",style="solid"];
  Node17 [label="xa2Manager.cpp",height=0.2,width=0.4,color="black", fillcolor="white", style="filled",URL="$xa2_manager_8cpp.html"];
  Node15 -> Node18 [dir="back",color="midnightblue",fontsize="10",style="solid"];
  Node18 [label="xa2SoundResourceManager.cpp",height=0.2,width=0.4,color="black", fillcolor="white", style="filled",URL="$xa2_sound_resource_manager_8cpp.html"];
  Node15 -> Node19 [dir="back",color="midnightblue",fontsize="10",style="solid"];
  Node19 [label="xa2SourceVoice2D.cpp",height=0.2,width=0.4,color="black", fillcolor="white", style="filled",URL="$xa2_source_voice2_d_8cpp.html"];
  Node15 -> Node20 [dir="back",color="midnightblue",fontsize="10",style="solid"];
  Node20 [label="xa2SourceVoice3D.cpp",height=0.2,width=0.4,color="black", fillcolor="white", style="filled",URL="$xa2_source_voice3_d_8cpp.html"];
  Node15 -> Node21 [dir="back",color="midnightblue",fontsize="10",style="solid"];
  Node21 [label="xa2SourceVoiceInterface.cpp",height=0.2,width=0.4,color="black", fillcolor="white", style="filled",URL="$xa2_source_voice_interface_8cpp.html"];
}
