digraph "xa2SourceVoice3D.h"
{
  edge [fontname="Helvetica",fontsize="10",labelfontname="Helvetica",labelfontsize="10"];
  node [fontname="Helvetica",fontsize="10",shape=record];
  Node13 [label="xa2SourceVoice3D.h",height=0.2,width=0.4,color="black", fillcolor="grey75", style="filled", fontcolor="black"];
  Node13 -> Node14 [dir="back",color="midnightblue",fontsize="10",style="solid"];
  Node14 [label="xa2SourceVoice3D.cpp",height=0.2,width=0.4,color="black", fillcolor="white", style="filled",URL="$xa2_source_voice3_d_8cpp.html"];
}
