digraph "xa2SourceVoice3D.cpp"
{
  edge [fontname="Helvetica",fontsize="10",labelfontname="Helvetica",labelfontsize="10"];
  node [fontname="Helvetica",fontsize="10",shape=record];
  Node0 [label="xa2SourceVoice3D.cpp",height=0.2,width=0.4,color="black", fillcolor="grey75", style="filled", fontcolor="black"];
  Node0 -> Node1 [color="midnightblue",fontsize="10",style="solid"];
  Node1 [label="algorithm",height=0.2,width=0.4,color="grey75", fillcolor="white", style="filled"];
  Node0 -> Node2 [color="midnightblue",fontsize="10",style="solid"];
  Node2 [label="xa2ListenerManager.h",height=0.2,width=0.4,color="black", fillcolor="white", style="filled",URL="$xa2_listener_manager_8h.html"];
  Node2 -> Node3 [color="midnightblue",fontsize="10",style="solid"];
  Node3 [label="list",height=0.2,width=0.4,color="grey75", fillcolor="white", style="filled"];
  Node2 -> Node4 [color="midnightblue",fontsize="10",style="solid"];
  Node4 [label="math.h",height=0.2,width=0.4,color="grey75", fillcolor="white", style="filled"];
  Node2 -> Node5 [color="midnightblue",fontsize="10",style="solid"];
  Node5 [label="xa2Manager.h",height=0.2,width=0.4,color="black", fillcolor="white", style="filled",URL="$xa2_manager_8h.html"];
  Node5 -> Node6 [color="midnightblue",fontsize="10",style="solid"];
  Node6 [label="mutex",height=0.2,width=0.4,color="grey75", fillcolor="white", style="filled"];
  Node5 -> Node7 [color="midnightblue",fontsize="10",style="solid"];
  Node7 [label="../Libs/Microsoft_Direct\lX_SDK_(June 2010)/Include\l/XAudio2.h",height=0.2,width=0.4,color="grey75", fillcolor="white", style="filled"];
  Node5 -> Node8 [color="midnightblue",fontsize="10",style="solid"];
  Node8 [label="../Libs/Microsoft_Direct\lX_SDK_(June 2010)/Include\l/xaudio2fx.h",height=0.2,width=0.4,color="grey75", fillcolor="white", style="filled"];
  Node5 -> Node9 [color="midnightblue",fontsize="10",style="solid"];
  Node9 [label="xaudio2fx.h",height=0.2,width=0.4,color="grey75", fillcolor="white", style="filled"];
  Node5 -> Node10 [color="midnightblue",fontsize="10",style="solid"];
  Node10 [label="x3daudio.h",height=0.2,width=0.4,color="grey75", fillcolor="white", style="filled"];
  Node0 -> Node11 [color="midnightblue",fontsize="10",style="solid"];
  Node11 [label="xa2Listener.h",height=0.2,width=0.4,color="black", fillcolor="white", style="filled",URL="$xa2_listener_8h.html"];
  Node11 -> Node12 [color="midnightblue",fontsize="10",style="solid"];
  Node12 [label="array",height=0.2,width=0.4,color="grey75", fillcolor="white", style="filled"];
  Node11 -> Node4 [color="midnightblue",fontsize="10",style="solid"];
  Node11 -> Node13 [color="midnightblue",fontsize="10",style="solid"];
  Node13 [label="Wmath.h",height=0.2,width=0.4,color="black", fillcolor="white", style="filled",URL="$w_math_8h.html"];
  Node13 -> Node14 [color="midnightblue",fontsize="10",style="solid"];
  Node14 [label="DirectXMath.h",height=0.2,width=0.4,color="grey75", fillcolor="white", style="filled"];
  Node11 -> Node5 [color="midnightblue",fontsize="10",style="solid"];
  Node11 -> Node15 [color="midnightblue",fontsize="10",style="solid"];
  Node15 [label="xa2SourceVoiceInterface.h",height=0.2,width=0.4,color="black", fillcolor="white", style="filled",URL="$xa2_source_voice_interface_8h.html"];
  Node15 -> Node7 [color="midnightblue",fontsize="10",style="solid"];
  Node15 -> Node16 [color="midnightblue",fontsize="10",style="solid"];
  Node16 [label="string",height=0.2,width=0.4,color="grey75", fillcolor="white", style="filled"];
  Node15 -> Node3 [color="midnightblue",fontsize="10",style="solid"];
  Node15 -> Node17 [color="midnightblue",fontsize="10",style="solid"];
  Node17 [label="xa2LoadWave.h",height=0.2,width=0.4,color="black", fillcolor="white", style="filled",URL="$xa2_load_wave_8h.html"];
  Node17 -> Node16 [color="midnightblue",fontsize="10",style="solid"];
  Node17 -> Node3 [color="midnightblue",fontsize="10",style="solid"];
  Node17 -> Node18 [color="midnightblue",fontsize="10",style="solid"];
  Node18 [label="vector",height=0.2,width=0.4,color="grey75", fillcolor="white", style="filled"];
  Node0 -> Node5 [color="midnightblue",fontsize="10",style="solid"];
  Node0 -> Node19 [color="midnightblue",fontsize="10",style="solid"];
  Node19 [label="xa2Core.h",height=0.2,width=0.4,color="black", fillcolor="white", style="filled",URL="$xa2_core_8h.html"];
  Node19 -> Node7 [color="midnightblue",fontsize="10",style="solid"];
  Node19 -> Node5 [color="midnightblue",fontsize="10",style="solid"];
  Node0 -> Node20 [color="midnightblue",fontsize="10",style="solid"];
  Node20 [label="xa2MasteringVoice.h",height=0.2,width=0.4,color="black", fillcolor="white", style="filled",URL="$xa2_mastering_voice_8h.html"];
  Node20 -> Node7 [color="midnightblue",fontsize="10",style="solid"];
  Node0 -> Node21 [color="midnightblue",fontsize="10",style="solid"];
  Node21 [label="xa2SourceVoiceManager.h",height=0.2,width=0.4,color="black", fillcolor="white", style="filled",URL="$xa2_source_voice_manager_8h.html"];
  Node21 -> Node22 [color="midnightblue",fontsize="10",style="solid"];
  Node22 [label="unordered_map",height=0.2,width=0.4,color="grey75", fillcolor="white", style="filled"];
  Node21 -> Node23 [color="midnightblue",fontsize="10",style="solid"];
  Node23 [label="thread",height=0.2,width=0.4,color="grey75", fillcolor="white", style="filled"];
  Node21 -> Node6 [color="midnightblue",fontsize="10",style="solid"];
  Node0 -> Node24 [color="midnightblue",fontsize="10",style="solid"];
  Node24 [label="xa2SourceVoice3D.h",height=0.2,width=0.4,color="black", fillcolor="white", style="filled",URL="$xa2_source_voice3_d_8h.html"];
  Node24 -> Node5 [color="midnightblue",fontsize="10",style="solid"];
  Node24 -> Node15 [color="midnightblue",fontsize="10",style="solid"];
  Node24 -> Node19 [color="midnightblue",fontsize="10",style="solid"];
  Node24 -> Node3 [color="midnightblue",fontsize="10",style="solid"];
  Node0 -> Node25 [color="midnightblue",fontsize="10",style="solid"];
  Node25 [label="xa2SoundResourceManager.h",height=0.2,width=0.4,color="black", fillcolor="white", style="filled",URL="$xa2_sound_resource_manager_8h.html"];
  Node25 -> Node7 [color="midnightblue",fontsize="10",style="solid"];
  Node25 -> Node16 [color="midnightblue",fontsize="10",style="solid"];
  Node25 -> Node22 [color="midnightblue",fontsize="10",style="solid"];
  Node25 -> Node17 [color="midnightblue",fontsize="10",style="solid"];
  Node25 -> Node26 [color="midnightblue",fontsize="10",style="solid"];
  Node26 [label="xa2LoadOgg.h",height=0.2,width=0.4,color="black", fillcolor="white", style="filled",URL="$xa2_load_ogg_8h.html"];
  Node26 -> Node27 [color="midnightblue",fontsize="10",style="solid"];
  Node27 [label="vorbis/codec.h",height=0.2,width=0.4,color="grey75", fillcolor="white", style="filled"];
  Node26 -> Node28 [color="midnightblue",fontsize="10",style="solid"];
  Node28 [label="vorbis/vorbisfile.h",height=0.2,width=0.4,color="grey75", fillcolor="white", style="filled"];
  Node26 -> Node5 [color="midnightblue",fontsize="10",style="solid"];
  Node26 -> Node17 [color="midnightblue",fontsize="10",style="solid"];
}
