digraph "xa2Core.h"
{
  edge [fontname="Helvetica",fontsize="10",labelfontname="Helvetica",labelfontsize="10"];
  node [fontname="Helvetica",fontsize="10",shape=record];
  Node7 [label="xa2Core.h",height=0.2,width=0.4,color="black", fillcolor="grey75", style="filled", fontcolor="black"];
  Node7 -> Node8 [dir="back",color="midnightblue",fontsize="10",style="solid"];
  Node8 [label="xa2Core.cpp",height=0.2,width=0.4,color="black", fillcolor="white", style="filled",URL="$xa2_core_8cpp.html"];
  Node7 -> Node9 [dir="back",color="midnightblue",fontsize="10",style="solid"];
  Node9 [label="xa2Listener.cpp",height=0.2,width=0.4,color="black", fillcolor="white", style="filled",URL="$xa2_listener_8cpp.html"];
  Node7 -> Node10 [dir="back",color="midnightblue",fontsize="10",style="solid"];
  Node10 [label="xa2ListenerManager.cpp",height=0.2,width=0.4,color="black", fillcolor="white", style="filled",URL="$xa2_listener_manager_8cpp.html"];
  Node7 -> Node11 [dir="back",color="midnightblue",fontsize="10",style="solid"];
  Node11 [label="xa2LoadWave.cpp",height=0.2,width=0.4,color="black", fillcolor="white", style="filled",URL="$xa2_load_wave_8cpp.html"];
  Node7 -> Node12 [dir="back",color="midnightblue",fontsize="10",style="solid"];
  Node12 [label="xa2Manager.cpp",height=0.2,width=0.4,color="black", fillcolor="white", style="filled",URL="$xa2_manager_8cpp.html"];
  Node7 -> Node13 [dir="back",color="midnightblue",fontsize="10",style="solid"];
  Node13 [label="xa2MasteringVoice.cpp",height=0.2,width=0.4,color="black", fillcolor="white", style="filled",URL="$xa2_mastering_voice_8cpp.html"];
  Node7 -> Node14 [dir="back",color="midnightblue",fontsize="10",style="solid"];
  Node14 [label="xa2SourceVoice2D.cpp",height=0.2,width=0.4,color="black", fillcolor="white", style="filled",URL="$xa2_source_voice2_d_8cpp.html"];
  Node7 -> Node15 [dir="back",color="midnightblue",fontsize="10",style="solid"];
  Node15 [label="xa2SourceVoice3D.cpp",height=0.2,width=0.4,color="black", fillcolor="white", style="filled",URL="$xa2_source_voice3_d_8cpp.html"];
  Node7 -> Node16 [dir="back",color="midnightblue",fontsize="10",style="solid"];
  Node16 [label="xa2SourceVoice3D.h",height=0.2,width=0.4,color="black", fillcolor="white", style="filled",URL="$xa2_source_voice3_d_8h.html"];
  Node16 -> Node15 [dir="back",color="midnightblue",fontsize="10",style="solid"];
  Node7 -> Node17 [dir="back",color="midnightblue",fontsize="10",style="solid"];
  Node17 [label="xa2SourceVoiceInterface.cpp",height=0.2,width=0.4,color="black", fillcolor="white", style="filled",URL="$xa2_source_voice_interface_8cpp.html"];
}
