digraph "xa2SourceVoice2D.h"
{
  edge [fontname="Helvetica",fontsize="10",labelfontname="Helvetica",labelfontsize="10"];
  node [fontname="Helvetica",fontsize="10",shape=record];
  Node7 [label="xa2SourceVoice2D.h",height=0.2,width=0.4,color="black", fillcolor="grey75", style="filled", fontcolor="black"];
  Node7 -> Node8 [dir="back",color="midnightblue",fontsize="10",style="solid"];
  Node8 [label="xa2SourceVoice2D.cpp",height=0.2,width=0.4,color="black", fillcolor="white", style="filled",URL="$xa2_source_voice2_d_8cpp.html"];
  Node7 -> Node9 [dir="back",color="midnightblue",fontsize="10",style="solid"];
  Node9 [label="xa2SourceVoiceManager.cpp",height=0.2,width=0.4,color="black", fillcolor="white", style="filled",URL="$xa2_source_voice_manager_8cpp.html"];
}
