digraph "XA2Manager::Locker"
{
  edge [fontname="Helvetica",fontsize="10",labelfontname="Helvetica",labelfontsize="10"];
  node [fontname="Helvetica",fontsize="10",shape=record];
  rankdir="LR";
  Node52 [label="XA2Manager::Locker",height=0.2,width=0.4,color="black", fillcolor="grey75", style="filled", fontcolor="black"];
  Node52 -> Node53 [dir="back",color="midnightblue",fontsize="10",style="solid",fontname="Helvetica"];
  Node53 [label="XA2LoadOggStreaming\l::Polling",height=0.2,width=0.4,color="black", fillcolor="white", style="filled",URL="$class_x_a2_load_ogg_streaming.html#a92a9140eeef10e944a806fd789935445"];
  Node53 -> Node54 [dir="back",color="midnightblue",fontsize="10",style="solid",fontname="Helvetica"];
  Node54 [label="XA2SourceVoice2D::Polling",height=0.2,width=0.4,color="black", fillcolor="white", style="filled",URL="$class_x_a2_source_voice2_d.html#ac2a595b52b376696d5e53a6d22cb9ff6"];
  Node52 -> Node55 [dir="back",color="midnightblue",fontsize="10",style="solid",fontname="Helvetica"];
  Node55 [label="XA2LoadAudio::ReadChunkData",height=0.2,width=0.4,color="black", fillcolor="white", style="filled",URL="$class_x_a2_load_audio.html#a47f7155a2f5682cabe7f1f09a3e2723b"];
  Node55 -> Node56 [dir="back",color="midnightblue",fontsize="10",style="solid",fontname="Helvetica"];
  Node56 [label="XA2LoadAudio::Load",height=0.2,width=0.4,color="black", fillcolor="white", style="filled",URL="$class_x_a2_load_audio.html#a979a555dc5b3bbc8e325c126d4abb8f1"];
  Node52 -> Node57 [dir="back",color="midnightblue",fontsize="10",style="solid",fontname="Helvetica"];
  Node57 [label="XA2LoadWaveStreaming\l::Polling",height=0.2,width=0.4,color="black", fillcolor="white", style="filled",URL="$class_x_a2_load_wave_streaming.html#a379b3b68d932167e14f8510e759fc3ac"];
  Node57 -> Node54 [dir="back",color="midnightblue",fontsize="10",style="solid",fontname="Helvetica"];
  Node57 -> Node58 [dir="back",color="midnightblue",fontsize="10",style="solid",fontname="Helvetica"];
  Node58 [label="XA2SourceVoice3D::Polling",height=0.2,width=0.4,color="black", fillcolor="white", style="filled",URL="$class_x_a2_source_voice3_d.html#a5afa83aae40a3bf71111bbf2c14a95d8"];
  Node52 -> Node54 [dir="back",color="midnightblue",fontsize="10",style="solid",fontname="Helvetica"];
  Node52 -> Node58 [dir="back",color="midnightblue",fontsize="10",style="solid",fontname="Helvetica"];
  Node52 -> Node59 [dir="back",color="midnightblue",fontsize="10",style="solid",fontname="Helvetica"];
  Node59 [label="XA2SourceVoiceInterface\l::ReleaseEndSE",height=0.2,width=0.4,color="black", fillcolor="white", style="filled",URL="$class_x_a2_source_voice_interface.html#adcd5048fa9c7317ef0f6c7f25fd6a75b"];
  Node59 -> Node60 [dir="back",color="midnightblue",fontsize="10",style="solid",fontname="Helvetica"];
  Node60 [label="XA2SourceVoice2D::Update",height=0.2,width=0.4,color="black", fillcolor="white", style="filled",URL="$class_x_a2_source_voice2_d.html#aca942b767fc213028a46ec2da72a66d4"];
  Node59 -> Node61 [dir="back",color="midnightblue",fontsize="10",style="solid",fontname="Helvetica"];
  Node61 [label="XA2SourceVoice3D::Update",height=0.2,width=0.4,color="black", fillcolor="white", style="filled",URL="$class_x_a2_source_voice3_d.html#aecb0e7bf791593bbdd90f7fd3a6d66d7"];
  Node52 -> Node62 [dir="back",color="midnightblue",fontsize="10",style="solid",fontname="Helvetica"];
  Node62 [label="XA2SourceVoiceInterface\l::StopAndUninit",height=0.2,width=0.4,color="black", fillcolor="white", style="filled",URL="$class_x_a2_source_voice_interface.html#ad85b459e630be7f28f653b81784ac93c"];
  Node52 -> Node63 [dir="back",color="midnightblue",fontsize="10",style="solid",fontname="Helvetica"];
  Node63 [label="XA2SourceVoiceInterface\l::Uninit",height=0.2,width=0.4,color="black", fillcolor="white", style="filled",URL="$class_x_a2_source_voice_interface.html#a14b6615cbdb8609dd4ac8b4bf0740033"];
  Node52 -> Node64 [dir="back",color="midnightblue",fontsize="10",style="solid",fontname="Helvetica"];
  Node64 [label="XA2SourceVoiceInterface\l::Play",height=0.2,width=0.4,color="black", fillcolor="white", style="filled",URL="$class_x_a2_source_voice_interface.html#a302efd601d54dcd5807898b6034081ea"];
  Node52 -> Node65 [dir="back",color="midnightblue",fontsize="10",style="solid",fontname="Helvetica"];
  Node65 [label="XA2SourceVoiceInterface\l::Stop",height=0.2,width=0.4,color="black", fillcolor="white", style="filled",URL="$class_x_a2_source_voice_interface.html#abda9ec56a1efd3fa0ed5f46d9e4af504"];
  Node52 -> Node66 [dir="back",color="midnightblue",fontsize="10",style="solid",fontname="Helvetica"];
  Node66 [label="XA2SourceVoiceInterface\l::StopAll",height=0.2,width=0.4,color="black", fillcolor="white", style="filled",URL="$class_x_a2_source_voice_interface.html#a2f75f056f18737212a30956635847b51"];
  Node52 -> Node67 [dir="back",color="midnightblue",fontsize="10",style="solid",fontname="Helvetica"];
  Node67 [label="XA2SourceVoiceManager\l::Update",height=0.2,width=0.4,color="black", fillcolor="white", style="filled",URL="$class_x_a2_source_voice_manager.html#aeee16a0debb30667b73514b613ea6211"];
  Node52 -> Node68 [dir="back",color="midnightblue",fontsize="10",style="solid",fontname="Helvetica"];
  Node68 [label="XA2SourceVoiceManager\l::StopAndUninit",height=0.2,width=0.4,color="black", fillcolor="white", style="filled",URL="$class_x_a2_source_voice_manager.html#a38b60c86a201b380afbd4291a64c2e79"];
  Node52 -> Node69 [dir="back",color="midnightblue",fontsize="10",style="solid",fontname="Helvetica"];
  Node69 [label="XA2SourceVoiceManager\l::Uninit",height=0.2,width=0.4,color="black", fillcolor="white", style="filled",URL="$class_x_a2_source_voice_manager.html#abfd6f853b1bef4e675c56feb328ce4e2"];
  Node69 -> Node70 [dir="back",color="midnightblue",fontsize="10",style="solid",fontname="Helvetica"];
  Node70 [label="XA2Manager::~XA2Manager",height=0.2,width=0.4,color="black", fillcolor="white", style="filled",URL="$class_x_a2_manager.html#a552049ab67652566566eeb9b1af1565a"];
}
