digraph "XA2LoadAudio::Stop"
{
  edge [fontname="Helvetica",fontsize="10",labelfontname="Helvetica",labelfontsize="10"];
  node [fontname="Helvetica",fontsize="10",shape=record];
  rankdir="LR";
  Node59 [label="XA2LoadAudio::Stop",height=0.2,width=0.4,color="black", fillcolor="grey75", style="filled", fontcolor="black"];
  Node59 -> Node60 [dir="back",color="midnightblue",fontsize="10",style="solid",fontname="Helvetica"];
  Node60 [label="XA2SourceVoiceData\l::Stop",height=0.2,width=0.4,color="black", fillcolor="white", style="filled",URL="$class_x_a2_source_voice_data.html#a992d13eff8a6e02c4c5129dfb6717db0"];
}
