digraph "XA2Listener::SetTop"
{
  edge [fontname="Helvetica",fontsize="10",labelfontname="Helvetica",labelfontsize="10"];
  node [fontname="Helvetica",fontsize="10",shape=record];
  rankdir="LR";
  Node25 [label="XA2Listener::SetTop",height=0.2,width=0.4,color="black", fillcolor="grey75", style="filled", fontcolor="black"];
  Node25 -> Node26 [color="midnightblue",fontsize="10",style="solid",fontname="Helvetica"];
  Node26 [label="XM::F3::Normalize",height=0.2,width=0.4,color="black", fillcolor="white", style="filled",URL="$namespace_x_m_1_1_f3.html#a03c609f7044dc69c73ea4ae863ed931c"];
}
