digraph "XA2LoadAudio::ReadChunkData"
{
  edge [fontname="Helvetica",fontsize="10",labelfontname="Helvetica",labelfontsize="10"];
  node [fontname="Helvetica",fontsize="10",shape=record];
  rankdir="LR";
  Node56 [label="XA2LoadAudio::ReadChunkData",height=0.2,width=0.4,color="black", fillcolor="grey75", style="filled", fontcolor="black"];
  Node56 -> Node57 [dir="back",color="midnightblue",fontsize="10",style="solid",fontname="Helvetica"];
  Node57 [label="XA2LoadAudio::Load",height=0.2,width=0.4,color="black", fillcolor="white", style="filled",URL="$class_x_a2_load_audio.html#a979a555dc5b3bbc8e325c126d4abb8f1"];
}
