digraph "XA2SourceVoice2D::Create"
{
  edge [fontname="Helvetica",fontsize="10",labelfontname="Helvetica",labelfontsize="10"];
  node [fontname="Helvetica",fontsize="10",shape=record];
  rankdir="LR";
  Node4 [label="XA2SourceVoice2D::Create",height=0.2,width=0.4,color="black", fillcolor="grey75", style="filled", fontcolor="black"];
  Node4 -> Node5 [color="midnightblue",fontsize="10",style="solid",fontname="Helvetica"];
  Node5 [label="XA2Manager::GetXA2Core",height=0.2,width=0.4,color="black", fillcolor="white", style="filled",URL="$class_x_a2_manager.html#a4dfb2f15ba1810d9ffbf99e918800e6a"];
  Node4 -> Node6 [color="midnightblue",fontsize="10",style="solid",fontname="Helvetica"];
  Node6 [label="XA2Manager::GetSoundResource\lManager",height=0.2,width=0.4,color="black", fillcolor="white", style="filled",URL="$class_x_a2_manager.html#a4d7fe6ac2f1968d79db7df42b5bf7a4f"];
  Node4 -> Node7 [color="midnightblue",fontsize="10",style="solid",fontname="Helvetica"];
  Node7 [label="XA2LoadAudio::Create",height=0.2,width=0.4,color="black", fillcolor="white", style="filled",URL="$class_x_a2_load_audio.html#aefc611b775d01031201f2ee08fb39721"];
  Node4 -> Node8 [color="midnightblue",fontsize="10",style="solid",fontname="Helvetica"];
  Node8 [label="XA2SoundResourceManager\l::GetXA2SoundResource",height=0.2,width=0.4,color="black", fillcolor="white", style="filled",URL="$class_x_a2_sound_resource_manager.html#a20028195bb0836f3082a0c16288d6659"];
  Node4 -> Node9 [color="midnightblue",fontsize="10",style="solid",fontname="Helvetica"];
  Node9 [label="XA2SourceVoiceData\l::GetSourceVoice",height=0.2,width=0.4,color="black", fillcolor="white", style="filled",URL="$class_x_a2_source_voice_data.html#ac60c0bf6f81539b9c417bf1e634d371d"];
  Node4 -> Node10 [color="midnightblue",fontsize="10",style="solid",fontname="Helvetica"];
  Node10 [label="XA2Core::GetXAudio2",height=0.2,width=0.4,color="black", fillcolor="white", style="filled",URL="$class_x_a2_core.html#ac9f3bfeaece1b2fdeaa40d82144c05b2"];
  Node4 -> Node11 [color="midnightblue",fontsize="10",style="solid",fontname="Helvetica"];
  Node11 [label="XA2LoadAudio::GetWfx",height=0.2,width=0.4,color="black", fillcolor="white", style="filled",URL="$class_x_a2_load_audio.html#a15cc303806eacd930f9e9d05dd43e053"];
  Node4 -> Node12 [color="midnightblue",fontsize="10",style="solid",fontname="Helvetica"];
  Node12 [label="XA2SourceVoiceData\l::SetSourceVoice",height=0.2,width=0.4,color="black", fillcolor="white", style="filled",URL="$class_x_a2_source_voice_data.html#a87899137b59967a779f0eac7ecfd5767"];
  Node4 -> Node13 [color="midnightblue",fontsize="10",style="solid",fontname="Helvetica"];
  Node13 [label="XA2SourceVoiceData\l::SetWaveData",height=0.2,width=0.4,color="black", fillcolor="white", style="filled",URL="$class_x_a2_source_voice_data.html#ae74fb2588df3ca30a7c3735db96769aa"];
  Node4 -> Node14 [color="midnightblue",fontsize="10",style="solid",fontname="Helvetica"];
  Node14 [label="XA2SourceVoiceData\l::SetFilePass",height=0.2,width=0.4,color="black", fillcolor="white", style="filled",URL="$class_x_a2_source_voice_data.html#a6aa9dcba927bd5d1a100be1a476ffd98"];
  Node4 -> Node15 [color="midnightblue",fontsize="10",style="solid",fontname="Helvetica"];
  Node15 [label="XA2SourceVoiceInterface\l::AddSourceVoiceData",height=0.2,width=0.4,color="black", fillcolor="white", style="filled",URL="$class_x_a2_source_voice_interface.html#a38f4d55358963a81c58b38935d157142"];
}
