digraph "XA2SourceVoiceData::Play"
{
  edge [fontname="Helvetica",fontsize="10",labelfontname="Helvetica",labelfontsize="10"];
  node [fontname="Helvetica",fontsize="10",shape=record];
  rankdir="LR";
  Node18 [label="XA2SourceVoiceData\l::Play",height=0.2,width=0.4,color="black", fillcolor="grey75", style="filled", fontcolor="black"];
  Node18 -> Node19 [color="midnightblue",fontsize="10",style="solid",fontname="Helvetica"];
  Node19 [label="XA2LoadAudio::Play",height=0.2,width=0.4,color="black", fillcolor="white", style="filled",URL="$class_x_a2_load_audio.html#a2be1fc1b7c63142a9d0fa89c4a8c9043"];
}
