digraph "XA2SourceVoiceData::GetSourceVoice"
{
  edge [fontname="Helvetica",fontsize="10",labelfontname="Helvetica",labelfontsize="10"];
  node [fontname="Helvetica",fontsize="10",shape=record];
  rankdir="LR";
  Node7 [label="XA2SourceVoiceData\l::GetSourceVoice",height=0.2,width=0.4,color="black", fillcolor="grey75", style="filled", fontcolor="black"];
  Node7 -> Node8 [dir="back",color="midnightblue",fontsize="10",style="solid",fontname="Helvetica"];
  Node8 [label="XA2LoadOggOnAll::Play",height=0.2,width=0.4,color="black", fillcolor="white", style="filled",URL="$class_x_a2_load_ogg_on_all.html#ab6770d29392a6dea7bfcc990f62cb64e"];
  Node7 -> Node9 [dir="back",color="midnightblue",fontsize="10",style="solid",fontname="Helvetica"];
  Node9 [label="XA2LoadOggStreaming\l::Play",height=0.2,width=0.4,color="black", fillcolor="white", style="filled",URL="$class_x_a2_load_ogg_streaming.html#a8fe12ea59c8fa2045e67aa6cbfca6c27"];
  Node7 -> Node10 [dir="back",color="midnightblue",fontsize="10",style="solid",fontname="Helvetica"];
  Node10 [label="XA2LoadWaveOnAll::Play",height=0.2,width=0.4,color="black", fillcolor="white", style="filled",URL="$class_x_a2_load_wave_on_all.html#a592001077251c6b9d66184ce766aaad7"];
  Node7 -> Node11 [dir="back",color="midnightblue",fontsize="10",style="solid",fontname="Helvetica"];
  Node11 [label="XA2LoadWaveStreaming\l::Play",height=0.2,width=0.4,color="black", fillcolor="white", style="filled",URL="$class_x_a2_load_wave_streaming.html#afe0a4b0ade5065582f08a7de2159bd8e"];
  Node7 -> Node12 [dir="back",color="midnightblue",fontsize="10",style="solid",fontname="Helvetica"];
  Node12 [label="XA2SourceVoice2D::Create",height=0.2,width=0.4,color="black", fillcolor="white", style="filled",URL="$class_x_a2_source_voice2_d.html#ad3d19f49ac9fdce15fcd8c0d9e334dd3"];
  Node12 -> Node13 [dir="back",color="midnightblue",fontsize="10",style="solid",fontname="Helvetica"];
  Node13 [label="XA2SourceVoice2D::CreatePlay",height=0.2,width=0.4,color="black", fillcolor="white", style="filled",URL="$class_x_a2_source_voice2_d.html#a1f588f03d2a71dd3979ee5b921949be3"];
  Node7 -> Node14 [dir="back",color="midnightblue",fontsize="10",style="solid",fontname="Helvetica"];
  Node14 [label="XA2SourceVoice3D::Create",height=0.2,width=0.4,color="black", fillcolor="white", style="filled",URL="$class_x_a2_source_voice3_d.html#a2d63c470368922c8d5956e10e30ae299"];
  Node14 -> Node15 [dir="back",color="midnightblue",fontsize="10",style="solid",fontname="Helvetica"];
  Node15 [label="XA2SourceVoice3D::CreatePlay",height=0.2,width=0.4,color="black", fillcolor="white", style="filled",URL="$class_x_a2_source_voice3_d.html#a9b6c3a3553c53f052cf591d9cc339dd6"];
}
