digraph "XA2LoadWaveStreaming::Release"
{
  edge [fontname="Helvetica",fontsize="10",labelfontname="Helvetica",labelfontsize="10"];
  node [fontname="Helvetica",fontsize="10",shape=record];
  rankdir="LR";
  Node18 [label="XA2LoadWaveStreaming\l::Release",height=0.2,width=0.4,color="black", fillcolor="grey75", style="filled", fontcolor="black"];
  Node18 -> Node19 [dir="back",color="midnightblue",fontsize="10",style="solid",fontname="Helvetica"];
  Node19 [label="XA2LoadWaveStreaming\l::Create",height=0.2,width=0.4,color="black", fillcolor="white", style="filled",URL="$class_x_a2_load_wave_streaming.html#acf01c0a2f920778abadbb3fe3385e47c"];
}
