digraph "XA2SourceVoice3D::SetInnerRadiusAngle"
{
  edge [fontname="Helvetica",fontsize="10",labelfontname="Helvetica",labelfontsize="10"];
  node [fontname="Helvetica",fontsize="10",shape=record];
  rankdir="LR";
  Node72 [label="XA2SourceVoice3D::SetInner\lRadiusAngle",height=0.2,width=0.4,color="black", fillcolor="grey75", style="filled", fontcolor="black"];
  Node72 -> Node73 [dir="back",color="midnightblue",fontsize="10",style="solid",fontname="Helvetica"];
  Node73 [label="XA2SourceVoice3D::Create",height=0.2,width=0.4,color="black", fillcolor="white", style="filled",URL="$class_x_a2_source_voice3_d.html#a2d63c470368922c8d5956e10e30ae299"];
  Node73 -> Node74 [dir="back",color="midnightblue",fontsize="10",style="solid",fontname="Helvetica"];
  Node74 [label="XA2SourceVoice3D::CreatePlay",height=0.2,width=0.4,color="black", fillcolor="white", style="filled",URL="$class_x_a2_source_voice3_d.html#a9b6c3a3553c53f052cf591d9cc339dd6"];
}
