digraph "XA2Manager::XA2Manager"
{
  edge [fontname="Helvetica",fontsize="10",labelfontname="Helvetica",labelfontsize="10"];
  node [fontname="Helvetica",fontsize="10",shape=record];
  rankdir="LR";
  Node0 [label="XA2Manager::XA2Manager",height=0.2,width=0.4,color="black", fillcolor="grey75", style="filled", fontcolor="black"];
  Node0 -> Node1 [color="midnightblue",fontsize="10",style="solid",fontname="Helvetica"];
  Node1 [label="XA2Core::Init",height=0.2,width=0.4,color="black", fillcolor="white", style="filled",URL="$class_x_a2_core.html#a3ac32744eadcf91e10b05957779b4dff"];
  Node1 -> Node2 [color="midnightblue",fontsize="10",style="solid",fontname="Helvetica"];
  Node2 [label="XA2Core::Uninit",height=0.2,width=0.4,color="black", fillcolor="white", style="filled",URL="$class_x_a2_core.html#a986360488e812e8a6ce1900701942f3f"];
  Node0 -> Node3 [color="midnightblue",fontsize="10",style="solid",fontname="Helvetica"];
  Node3 [label="XA2MasteringVoice::Init",height=0.2,width=0.4,color="black", fillcolor="white", style="filled",URL="$class_x_a2_mastering_voice.html#aaadc5532c21addb483a07418856a72c8"];
  Node3 -> Node4 [color="midnightblue",fontsize="10",style="solid",fontname="Helvetica"];
  Node4 [label="XA2Core::GetXAudio2",height=0.2,width=0.4,color="black", fillcolor="white", style="filled",URL="$class_x_a2_core.html#ac9f3bfeaece1b2fdeaa40d82144c05b2"];
  Node0 -> Node2 [color="midnightblue",fontsize="10",style="solid",fontname="Helvetica"];
  Node0 -> Node5 [color="midnightblue",fontsize="10",style="solid",fontname="Helvetica"];
  Node5 [label="XA2Core::GetChannelMask",height=0.2,width=0.4,color="black", fillcolor="white", style="filled",URL="$class_x_a2_core.html#af694d880258def99f0a98be056f42e1c"];
}
