digraph "XA2LoadOggStreaming::Polling"
{
  edge [fontname="Helvetica",fontsize="10",labelfontname="Helvetica",labelfontsize="10"];
  node [fontname="Helvetica",fontsize="10",shape=record];
  rankdir="LR";
  Node12 [label="XA2LoadOggStreaming\l::Polling",height=0.2,width=0.4,color="black", fillcolor="grey75", style="filled", fontcolor="black"];
  Node12 -> Node13 [color="midnightblue",fontsize="10",style="solid",fontname="Helvetica"];
  Node13 [label="XA2Manager::Locker",height=0.2,width=0.4,color="black", fillcolor="white", style="filled",URL="$class_x_a2_manager.html#a8b5655a4480f7d5f722bcc867e4ae17a"];
}
