digraph "XA2SourceVoice3D::Uninit"
{
  edge [fontname="Helvetica",fontsize="10",labelfontname="Helvetica",labelfontsize="10"];
  node [fontname="Helvetica",fontsize="10",shape=record];
  rankdir="LR";
  Node83 [label="XA2SourceVoice3D::Uninit",height=0.2,width=0.4,color="black", fillcolor="grey75", style="filled", fontcolor="black"];
  Node83 -> Node84 [dir="back",color="midnightblue",fontsize="10",style="solid",fontname="Helvetica"];
  Node84 [label="XA2SourceVoice3D::\l~XA2SourceVoice3D",height=0.2,width=0.4,color="black", fillcolor="white", style="filled",URL="$class_x_a2_source_voice3_d.html#ad1e2f2c723ab894a243d68f76d7e1fa1"];
}
