digraph "クラス階層図"
{
  edge [fontname="Helvetica",fontsize="10",labelfontname="Helvetica",labelfontsize="10"];
  node [fontname="Helvetica",fontsize="10",shape=record];
  rankdir="LR";
  Node0 [label="WAVEFILEHEADER",height=0.2,width=0.4,color="black", fillcolor="white", style="filled",URL="$struct_w_a_v_e_f_i_l_e_h_e_a_d_e_r.html"];
}
