digraph "XM::F3::Normalize"
{
  edge [fontname="Helvetica",fontsize="10",labelfontname="Helvetica",labelfontsize="10"];
  node [fontname="Helvetica",fontsize="10",shape=record];
  rankdir="LR";
  Node13 [label="XM::F3::Normalize",height=0.2,width=0.4,color="black", fillcolor="grey75", style="filled", fontcolor="black"];
  Node13 -> Node14 [dir="back",color="midnightblue",fontsize="10",style="solid",fontname="Helvetica"];
  Node14 [label="XA2Listener::SetTop",height=0.2,width=0.4,color="black", fillcolor="white", style="filled",URL="$class_x_a2_listener.html#af257320ba20aa0cd33908501e221274c"];
  Node13 -> Node15 [dir="back",color="midnightblue",fontsize="10",style="solid",fontname="Helvetica"];
  Node15 [label="XA2Listener::SetFront",height=0.2,width=0.4,color="black", fillcolor="white", style="filled",URL="$class_x_a2_listener.html#af889c0158d2c7b261704eeae05695a5d"];
  Node13 -> Node16 [dir="back",color="midnightblue",fontsize="10",style="solid",fontname="Helvetica"];
  Node16 [label="XA2SourceVoice3D::SetTop",height=0.2,width=0.4,color="black", fillcolor="white", style="filled",URL="$class_x_a2_source_voice3_d.html#a0f130abc5dc755aab2b7245b39ea7fe9"];
  Node13 -> Node17 [dir="back",color="midnightblue",fontsize="10",style="solid",fontname="Helvetica"];
  Node17 [label="XA2SourceVoice3D::SetFront",height=0.2,width=0.4,color="black", fillcolor="white", style="filled",URL="$class_x_a2_source_voice3_d.html#ac874a08ac6ad05b23d68869f78b7257d"];
}
