digraph "xa2SoundResourceManager.h"
{
  edge [fontname="Helvetica",fontsize="10",labelfontname="Helvetica",labelfontsize="10"];
  node [fontname="Helvetica",fontsize="10",shape=record];
  Node0 [label="xa2SoundResourceManager.h",height=0.2,width=0.4,color="black", fillcolor="grey75", style="filled", fontcolor="black"];
  Node0 -> Node1 [color="midnightblue",fontsize="10",style="solid",fontname="Helvetica"];
  Node1 [label="../Libs/Microsoft_Direct\lX_SDK_(June 2010)/Include\l/XAudio2.h",height=0.2,width=0.4,color="grey75", fillcolor="white", style="filled"];
  Node0 -> Node2 [color="midnightblue",fontsize="10",style="solid",fontname="Helvetica"];
  Node2 [label="string",height=0.2,width=0.4,color="grey75", fillcolor="white", style="filled"];
  Node0 -> Node3 [color="midnightblue",fontsize="10",style="solid",fontname="Helvetica"];
  Node3 [label="unordered_map",height=0.2,width=0.4,color="grey75", fillcolor="white", style="filled"];
  Node0 -> Node4 [color="midnightblue",fontsize="10",style="solid",fontname="Helvetica"];
  Node4 [label="xa2LoadWave.h",height=0.2,width=0.4,color="black", fillcolor="white", style="filled",URL="$xa2_load_wave_8h.html"];
  Node4 -> Node2 [color="midnightblue",fontsize="10",style="solid",fontname="Helvetica"];
  Node4 -> Node5 [color="midnightblue",fontsize="10",style="solid",fontname="Helvetica"];
  Node5 [label="list",height=0.2,width=0.4,color="grey75", fillcolor="white", style="filled"];
  Node4 -> Node6 [color="midnightblue",fontsize="10",style="solid",fontname="Helvetica"];
  Node6 [label="vector",height=0.2,width=0.4,color="grey75", fillcolor="white", style="filled"];
  Node0 -> Node7 [color="midnightblue",fontsize="10",style="solid",fontname="Helvetica"];
  Node7 [label="xa2LoadOgg.h",height=0.2,width=0.4,color="black", fillcolor="white", style="filled",URL="$xa2_load_ogg_8h.html"];
  Node7 -> Node8 [color="midnightblue",fontsize="10",style="solid",fontname="Helvetica"];
  Node8 [label="vorbis/codec.h",height=0.2,width=0.4,color="grey75", fillcolor="white", style="filled"];
  Node7 -> Node9 [color="midnightblue",fontsize="10",style="solid",fontname="Helvetica"];
  Node9 [label="vorbis/vorbisfile.h",height=0.2,width=0.4,color="grey75", fillcolor="white", style="filled"];
  Node7 -> Node10 [color="midnightblue",fontsize="10",style="solid",fontname="Helvetica"];
  Node10 [label="xa2Manager.h",height=0.2,width=0.4,color="black", fillcolor="white", style="filled",URL="$xa2_manager_8h.html"];
  Node10 -> Node11 [color="midnightblue",fontsize="10",style="solid",fontname="Helvetica"];
  Node11 [label="mutex",height=0.2,width=0.4,color="grey75", fillcolor="white", style="filled"];
  Node10 -> Node1 [color="midnightblue",fontsize="10",style="solid",fontname="Helvetica"];
  Node10 -> Node12 [color="midnightblue",fontsize="10",style="solid",fontname="Helvetica"];
  Node12 [label="../Libs/Microsoft_Direct\lX_SDK_(June 2010)/Include\l/xaudio2fx.h",height=0.2,width=0.4,color="grey75", fillcolor="white", style="filled"];
  Node10 -> Node13 [color="midnightblue",fontsize="10",style="solid",fontname="Helvetica"];
  Node13 [label="xaudio2fx.h",height=0.2,width=0.4,color="grey75", fillcolor="white", style="filled"];
  Node10 -> Node14 [color="midnightblue",fontsize="10",style="solid",fontname="Helvetica"];
  Node14 [label="x3daudio.h",height=0.2,width=0.4,color="grey75", fillcolor="white", style="filled"];
  Node7 -> Node4 [color="midnightblue",fontsize="10",style="solid",fontname="Helvetica"];
}
