digraph "xa2MasteringVoice.h"
{
  edge [fontname="Helvetica",fontsize="10",labelfontname="Helvetica",labelfontsize="10"];
  node [fontname="Helvetica",fontsize="10",shape=record];
  Node0 [label="xa2MasteringVoice.h",height=0.2,width=0.4,color="black", fillcolor="grey75", style="filled", fontcolor="black"];
  Node0 -> Node1 [color="midnightblue",fontsize="10",style="solid",fontname="Helvetica"];
  Node1 [label="../Libs/Microsoft_Direct\lX_SDK_(June 2010)/Include\l/XAudio2.h",height=0.2,width=0.4,color="grey75", fillcolor="white", style="filled"];
}
