digraph "xa2ListenerManager.cpp"
{
  edge [fontname="Helvetica",fontsize="10",labelfontname="Helvetica",labelfontsize="10"];
  node [fontname="Helvetica",fontsize="10",shape=record];
  Node0 [label="xa2ListenerManager.cpp",height=0.2,width=0.4,color="black", fillcolor="grey75", style="filled", fontcolor="black"];
  Node0 -> Node1 [color="midnightblue",fontsize="10",style="solid",fontname="Helvetica"];
  Node1 [label="xa2Manager.h",height=0.2,width=0.4,color="black", fillcolor="white", style="filled",URL="$xa2_manager_8h.html"];
  Node1 -> Node2 [color="midnightblue",fontsize="10",style="solid",fontname="Helvetica"];
  Node2 [label="mutex",height=0.2,width=0.4,color="grey75", fillcolor="white", style="filled"];
  Node1 -> Node3 [color="midnightblue",fontsize="10",style="solid",fontname="Helvetica"];
  Node3 [label="../Libs/Microsoft_Direct\lX_SDK_(June 2010)/Include\l/XAudio2.h",height=0.2,width=0.4,color="grey75", fillcolor="white", style="filled"];
  Node1 -> Node4 [color="midnightblue",fontsize="10",style="solid",fontname="Helvetica"];
  Node4 [label="../Libs/Microsoft_Direct\lX_SDK_(June 2010)/Include\l/xaudio2fx.h",height=0.2,width=0.4,color="grey75", fillcolor="white", style="filled"];
  Node1 -> Node5 [color="midnightblue",fontsize="10",style="solid",fontname="Helvetica"];
  Node5 [label="xaudio2fx.h",height=0.2,width=0.4,color="grey75", fillcolor="white", style="filled"];
  Node1 -> Node6 [color="midnightblue",fontsize="10",style="solid",fontname="Helvetica"];
  Node6 [label="x3daudio.h",height=0.2,width=0.4,color="grey75", fillcolor="white", style="filled"];
  Node0 -> Node7 [color="midnightblue",fontsize="10",style="solid",fontname="Helvetica"];
  Node7 [label="xa2Core.h",height=0.2,width=0.4,color="black", fillcolor="white", style="filled",URL="$xa2_core_8h.html"];
  Node7 -> Node3 [color="midnightblue",fontsize="10",style="solid",fontname="Helvetica"];
  Node7 -> Node1 [color="midnightblue",fontsize="10",style="solid",fontname="Helvetica"];
  Node0 -> Node8 [color="midnightblue",fontsize="10",style="solid",fontname="Helvetica"];
  Node8 [label="xa2ListenerManager.h",height=0.2,width=0.4,color="black", fillcolor="white", style="filled",URL="$xa2_listener_manager_8h.html"];
  Node8 -> Node9 [color="midnightblue",fontsize="10",style="solid",fontname="Helvetica"];
  Node9 [label="list",height=0.2,width=0.4,color="grey75", fillcolor="white", style="filled"];
  Node8 -> Node10 [color="midnightblue",fontsize="10",style="solid",fontname="Helvetica"];
  Node10 [label="math.h",height=0.2,width=0.4,color="grey75", fillcolor="white", style="filled"];
  Node8 -> Node1 [color="midnightblue",fontsize="10",style="solid",fontname="Helvetica"];
  Node0 -> Node11 [color="midnightblue",fontsize="10",style="solid",fontname="Helvetica"];
  Node11 [label="xa2Listener.h",height=0.2,width=0.4,color="black", fillcolor="white", style="filled",URL="$xa2_listener_8h.html"];
  Node11 -> Node12 [color="midnightblue",fontsize="10",style="solid",fontname="Helvetica"];
  Node12 [label="array",height=0.2,width=0.4,color="grey75", fillcolor="white", style="filled"];
  Node11 -> Node10 [color="midnightblue",fontsize="10",style="solid",fontname="Helvetica"];
  Node11 -> Node13 [color="midnightblue",fontsize="10",style="solid",fontname="Helvetica"];
  Node13 [label="Wmath.h",height=0.2,width=0.4,color="black", fillcolor="white", style="filled",URL="$w_math_8h.html"];
  Node13 -> Node14 [color="midnightblue",fontsize="10",style="solid",fontname="Helvetica"];
  Node14 [label="DirectXMath.h",height=0.2,width=0.4,color="grey75", fillcolor="white", style="filled"];
  Node11 -> Node1 [color="midnightblue",fontsize="10",style="solid",fontname="Helvetica"];
  Node11 -> Node15 [color="midnightblue",fontsize="10",style="solid",fontname="Helvetica"];
  Node15 [label="xa2SourceVoiceInterface.h",height=0.2,width=0.4,color="black", fillcolor="white", style="filled",URL="$xa2_source_voice_interface_8h.html"];
  Node15 -> Node3 [color="midnightblue",fontsize="10",style="solid",fontname="Helvetica"];
  Node15 -> Node16 [color="midnightblue",fontsize="10",style="solid",fontname="Helvetica"];
  Node16 [label="string",height=0.2,width=0.4,color="grey75", fillcolor="white", style="filled"];
  Node15 -> Node9 [color="midnightblue",fontsize="10",style="solid",fontname="Helvetica"];
  Node15 -> Node17 [color="midnightblue",fontsize="10",style="solid",fontname="Helvetica"];
  Node17 [label="xa2LoadWave.h",height=0.2,width=0.4,color="black", fillcolor="white", style="filled",URL="$xa2_load_wave_8h.html"];
  Node17 -> Node16 [color="midnightblue",fontsize="10",style="solid",fontname="Helvetica"];
  Node17 -> Node9 [color="midnightblue",fontsize="10",style="solid",fontname="Helvetica"];
  Node17 -> Node18 [color="midnightblue",fontsize="10",style="solid",fontname="Helvetica"];
  Node18 [label="vector",height=0.2,width=0.4,color="grey75", fillcolor="white", style="filled"];
}
