digraph "xa2SourceVoiceInterface.cpp"
{
  edge [fontname="Helvetica",fontsize="10",labelfontname="Helvetica",labelfontsize="10"];
  node [fontname="Helvetica",fontsize="10",shape=record];
  Node0 [label="xa2SourceVoiceInterface.cpp",height=0.2,width=0.4,color="black", fillcolor="grey75", style="filled", fontcolor="black"];
  Node0 -> Node1 [color="midnightblue",fontsize="10",style="solid",fontname="Helvetica"];
  Node1 [label="algorithm",height=0.2,width=0.4,color="grey75", fillcolor="white", style="filled"];
  Node0 -> Node2 [color="midnightblue",fontsize="10",style="solid",fontname="Helvetica"];
  Node2 [label="xa2Manager.h",height=0.2,width=0.4,color="black", fillcolor="white", style="filled",URL="$xa2_manager_8h.html"];
  Node2 -> Node3 [color="midnightblue",fontsize="10",style="solid",fontname="Helvetica"];
  Node3 [label="mutex",height=0.2,width=0.4,color="grey75", fillcolor="white", style="filled"];
  Node2 -> Node4 [color="midnightblue",fontsize="10",style="solid",fontname="Helvetica"];
  Node4 [label="../Libs/Microsoft_Direct\lX_SDK_(June 2010)/Include\l/XAudio2.h",height=0.2,width=0.4,color="grey75", fillcolor="white", style="filled"];
  Node2 -> Node5 [color="midnightblue",fontsize="10",style="solid",fontname="Helvetica"];
  Node5 [label="../Libs/Microsoft_Direct\lX_SDK_(June 2010)/Include\l/xaudio2fx.h",height=0.2,width=0.4,color="grey75", fillcolor="white", style="filled"];
  Node2 -> Node6 [color="midnightblue",fontsize="10",style="solid",fontname="Helvetica"];
  Node6 [label="xaudio2fx.h",height=0.2,width=0.4,color="grey75", fillcolor="white", style="filled"];
  Node2 -> Node7 [color="midnightblue",fontsize="10",style="solid",fontname="Helvetica"];
  Node7 [label="x3daudio.h",height=0.2,width=0.4,color="grey75", fillcolor="white", style="filled"];
  Node0 -> Node8 [color="midnightblue",fontsize="10",style="solid",fontname="Helvetica"];
  Node8 [label="xa2Core.h",height=0.2,width=0.4,color="black", fillcolor="white", style="filled",URL="$xa2_core_8h.html"];
  Node8 -> Node4 [color="midnightblue",fontsize="10",style="solid",fontname="Helvetica"];
  Node8 -> Node2 [color="midnightblue",fontsize="10",style="solid",fontname="Helvetica"];
  Node0 -> Node9 [color="midnightblue",fontsize="10",style="solid",fontname="Helvetica"];
  Node9 [label="xa2MasteringVoice.h",height=0.2,width=0.4,color="black", fillcolor="white", style="filled",URL="$xa2_mastering_voice_8h.html"];
  Node9 -> Node4 [color="midnightblue",fontsize="10",style="solid",fontname="Helvetica"];
  Node0 -> Node10 [color="midnightblue",fontsize="10",style="solid",fontname="Helvetica"];
  Node10 [label="xa2SoundResourceManager.h",height=0.2,width=0.4,color="black", fillcolor="white", style="filled",URL="$xa2_sound_resource_manager_8h.html"];
  Node10 -> Node4 [color="midnightblue",fontsize="10",style="solid",fontname="Helvetica"];
  Node10 -> Node11 [color="midnightblue",fontsize="10",style="solid",fontname="Helvetica"];
  Node11 [label="string",height=0.2,width=0.4,color="grey75", fillcolor="white", style="filled"];
  Node10 -> Node12 [color="midnightblue",fontsize="10",style="solid",fontname="Helvetica"];
  Node12 [label="unordered_map",height=0.2,width=0.4,color="grey75", fillcolor="white", style="filled"];
  Node10 -> Node13 [color="midnightblue",fontsize="10",style="solid",fontname="Helvetica"];
  Node13 [label="xa2LoadWave.h",height=0.2,width=0.4,color="black", fillcolor="white", style="filled",URL="$xa2_load_wave_8h.html"];
  Node13 -> Node11 [color="midnightblue",fontsize="10",style="solid",fontname="Helvetica"];
  Node13 -> Node14 [color="midnightblue",fontsize="10",style="solid",fontname="Helvetica"];
  Node14 [label="list",height=0.2,width=0.4,color="grey75", fillcolor="white", style="filled"];
  Node13 -> Node15 [color="midnightblue",fontsize="10",style="solid",fontname="Helvetica"];
  Node15 [label="vector",height=0.2,width=0.4,color="grey75", fillcolor="white", style="filled"];
  Node10 -> Node16 [color="midnightblue",fontsize="10",style="solid",fontname="Helvetica"];
  Node16 [label="xa2LoadOgg.h",height=0.2,width=0.4,color="black", fillcolor="white", style="filled",URL="$xa2_load_ogg_8h.html"];
  Node16 -> Node17 [color="midnightblue",fontsize="10",style="solid",fontname="Helvetica"];
  Node17 [label="vorbis/codec.h",height=0.2,width=0.4,color="grey75", fillcolor="white", style="filled"];
  Node16 -> Node18 [color="midnightblue",fontsize="10",style="solid",fontname="Helvetica"];
  Node18 [label="vorbis/vorbisfile.h",height=0.2,width=0.4,color="grey75", fillcolor="white", style="filled"];
  Node16 -> Node2 [color="midnightblue",fontsize="10",style="solid",fontname="Helvetica"];
  Node16 -> Node13 [color="midnightblue",fontsize="10",style="solid",fontname="Helvetica"];
  Node0 -> Node19 [color="midnightblue",fontsize="10",style="solid",fontname="Helvetica"];
  Node19 [label="xa2SourceVoiceManager.h",height=0.2,width=0.4,color="black", fillcolor="white", style="filled",URL="$xa2_source_voice_manager_8h.html"];
  Node19 -> Node12 [color="midnightblue",fontsize="10",style="solid",fontname="Helvetica"];
  Node19 -> Node20 [color="midnightblue",fontsize="10",style="solid",fontname="Helvetica"];
  Node20 [label="thread",height=0.2,width=0.4,color="grey75", fillcolor="white", style="filled"];
  Node19 -> Node3 [color="midnightblue",fontsize="10",style="solid",fontname="Helvetica"];
  Node0 -> Node21 [color="midnightblue",fontsize="10",style="solid",fontname="Helvetica"];
  Node21 [label="xa2SourceVoiceInterface.h",height=0.2,width=0.4,color="black", fillcolor="white", style="filled",URL="$xa2_source_voice_interface_8h.html"];
  Node21 -> Node4 [color="midnightblue",fontsize="10",style="solid",fontname="Helvetica"];
  Node21 -> Node11 [color="midnightblue",fontsize="10",style="solid",fontname="Helvetica"];
  Node21 -> Node14 [color="midnightblue",fontsize="10",style="solid",fontname="Helvetica"];
  Node21 -> Node13 [color="midnightblue",fontsize="10",style="solid",fontname="Helvetica"];
}
